…
```
## Warning in scan(file = file, what = what, sep = sep, quote = quote, dec =
## dec, : EOF within quoted string
```

```r
inspect250trans %>% group_by(CSIScontractID)
```

```
## # A tibble: 1,650 x 253
## # Groups:   CSIScontractID [38]
##    ï..unique_trans~ transaction_sta~ obligatedamount baseandexercise~
##    <fct>            <fct>                      <dbl> <fct>           
##  1 ac2536aa-30dc-8~ Active                     16575 16575.0000      
##  2 6bae985b-4b98-7~ Active                     18000 18000.0000      
##  3 3e6ea0c8-a014-3~ Active                     20000 20000.0000      
##  4 2bb243e2-0402-c~ Active                     10000 10000.0000      
##  5 f90f4eaa-f037-e~ Active                     31206 31206.0000      
##  6 9d6487bc-6406-b~ Active                         0 0.0000          
##  7 3a9992fb-54c1-9~ Active                      1000 1000.0000       
##  8 4155b758-8fb8-0~ Active                      7500 7500.0000       
##  9 39d11f2e-9ddd-0~ Active                     15000 15000.0000      
## 10 2eaffa03-47e6-f~ Active                     18000 18000.0000      
## # ... with 1,640 more rows, and 249 more variables:
## #   baseandalloptionsvalue <dbl>, maj_agency_cat <int>, mod_agency <fct>,
## #   maj_fund_agency_cat <int>, contractingofficeagencyid <fct>,
## #   contractingofficeid <fct>, fundingrequestingagencyid <fct>,
## #   fundingrequestingofficeid <fct>, fundedbyforeignentity <fct>,
## #   signeddate <fct>, effectivedate <fct>, currentcompletiondate <fct>,
## #   ultimatecompletiondate <fct>, lastdatetoorder <fct>,
## #   contractactiontype <fct>, reasonformodification <fct>,
## #   typeofcontractpricing <fct>, priceevaluationpercentdifference <fct>,
…
