…
```
## Scale for x is already present.
## Adding another scale for x, which will replace the existing scale.
```



## Topline Competition

```r
fed_data %>% group_by(Fiscal_Year) %>% summarise(Action_Obligation_OMB25_GDP23=sum(Action_Obligation_OMB25_GDP23))
```

```
## # A tibble: 26 × 2
##    Fiscal_Year Action_Obligation_OMB25_GDP23
##          <dbl>                         <dbl>
##  1        2000                 345686253501.
##  2        2001                 366229885158.
##  3        2002                 426904906660.
##  4        2003                 506631935233.
##  5        2004                 525262184344.
##  6        2005                 587927275153.
##  7        2006                 627226375429.
##  8        2007                 665187279430.
##  9        2008                 732787294919.
## 10        2009                 762295129925.
## # ℹ 16 more rows
```
…
