…
```
## `summarise()` regrouping output by 'ProjectName' (override with `.groups` argument)
```

```r
topplat %>% arrange(desc(Action_Obligation_OMB20_GDP20))
```

```
## # A tibble: 1,606 x 6
## # Groups:   PlatformPortfolio [12]
##    ProjectName PlatformPortfol~ Action_Obligati~ Action_Obligati~ rank_total
##    <chr>       <fct>                       <dbl>            <dbl>      <dbl>
##  1  <NA>       Electronics, Co~   1027909795881.          3.50e15          1
##  2  <NA>       Facilities and ~   1022894052979.          5.11e15          1
##  3  <NA>       Aircraft            834056696435.          2.18e15          1
##  4  <NA>       Other R&D and K~    763362869530.          1.39e15          1
##  5  <NA>       Other Products      621466359264.          7.37e14          1
##  6  <NA>       Other Services      596912001864.          5.35e14          1
##  7  <NA>       Ships & Submari~    302793991598.          3.65e14          1
##  8  <NA>       Land Vehicles       259395594777.          2.85e14          1
##  9  <NA>       Ordnance and Mi~    253657609312.          2.41e14          1
## 10 "JSF (F-35~ Aircraft            161797373660.          8.09e12          2
## # ... with 1,596 more rows, and 1 more variable: rank_2020 <dbl>
```
…
```
## `summarise()` regrouping output by 'ProductOrServiceCode', 'ProductOrServiceCodeText' (override with `.groups` argument)
```

```r
topPSC %>% arrange(desc(Action_Obligation_OMB20_GDP20))
```

```
## # A tibble: 10,023 x 7
## # Groups:   PlatformPortfolio [12]
##    ProductOrServic~ ProductOrServic~ PlatformPortfol~ Action_Obligati~
##    <chr>            <chr>            <fct>                       <dbl>
##  1 1510             AIRCRAFT, FIXED~ Aircraft            528430043863.
##  2 Q201             GENERAL HEALTH ~ Other Services      221749457502.
##  3 9130             LIQUID PROPELLA~ Other Products      211269043211.
##  4 R425             ENGINEERING AND~ Other R&D and K~    177913166899.
##  5 R706             LOGISTICS SUPPO~ Other Services      145874993447.
##  6 D399             IT AND TELECOM-~ Electronics, Co~    128543461468.
##  7 1520             AIRCRAFT, ROTAR~ Aircraft            120207742063.
##  8 2840             GAS TURBINES & ~ Aircraft            117634677209.
##  9 1905             COMBAT SHIPS AN~ Ships & Submari~    116097896053.
## 10 R499             OTHER PROFESSIO~ Other R&D and K~     96258179781.
## # ... with 10,013 more rows, and 3 more variables:
## #   Action_Obligation_2020 <dbl>, rank_total <dbl>, rank_2020 <dbl>
```
…
