…
```
## Scale for x is already present.
## Adding another scale for x, which will replace the existing scale.
```


## Topline Competition

```r
def_data %>% group_by(Fiscal_Year) %>% summarise(Action_Obligation_OMB25_GDP23=sum(Action_Obligation_OMB25_GDP23))
```

```
## # A tibble: 36 × 2
##    Fiscal_Year Action_Obligation_OMB25_GDP23
##          <dbl>                         <dbl>
##  1        1990                           NA 
##  2        1991                 273827078222.
##  3        1992                 244008864536.
##  4        1993                 234236382896.
##  5        1994                 221558292863.
##  6        1995                 215954062691.
##  7        1996                 216113514484.
##  8        1997                 245974681717.
##  9        1998                 248990707511.
## 10        1999                 268751392549.
## # ℹ 26 more rows
```
…
