…
# Topline



## Topline Competition

```r
pbl_short %>% group_by(Fiscal_Year) %>% summarise(Action_Obligation_OMB25_GDP23=sum(Action_Obligation_OMB25_GDP23))
```

```
## # A tibble: 27 × 2
##    Fiscal_Year Action_Obligation_OMB25_GDP23
##          <int>                         <dbl>
##  1        1999                     29459651.
##  2        2000                    445523749.
##  3        2001                    848348774.
##  4        2002                    970329856.
##  5        2003                   1746966098.
##  6        2004                   2424386473.
##  7        2005                   2076017042.
##  8        2006                   3175912693.
##  9        2007                   4444299722.
## 10        2008                   5247582346.
## # ℹ 17 more rows
```
…
